	loadI 0 => fp
	loadI 0 => sp
	loadI 0 => rbss
	jumpI => f-main
f-main: addI sp, 16 => sp
w-2: nop
w-2-00: nop
	loadAI rbss,0 => r10
	cbr r10 -> w-2-t, w-2-f
w-2-t: nop
	loadI 0 => r0
	storeAI r0 => rbss,0
	jumpI -> w-2
w-2-f: nop
	halt
