	loadI 0 => fp
	loadI 0 => sp
	loadI 0 => rbss
	jumpI => f-main
f-main: addI sp, 16 => sp
d-2: nop
d-2-t: nop
	loadI 0 => r0
	storeAI r0 => rbss,0
d-2-00: nop
	loadAI rbss,0 => r10
	cbr r10 -> d-2-t, d-2-f
d-2-f: nop
	halt
