	loadI 0 => fp
	loadI 0 => sp
	loadI 0 => rbss
	jumpI => f-main
f-main: addI sp, 16 => sp
	loadI 1 => r0
	storeAI r0 => rbss,0
i-2: nop
i-2-00: nop
	loadAI rbss,0 => r10
	cbr r10 -> i-2-t, i-2-f
i-2-t: nop
	loadI 0 => r0
	storeAI r0 => rbss,0
	jumpI -> i-2-e
i-2-f: nop
i-2-e: nop
	halt
