	loadI 0 => fp
	loadI 0 => sp
	loadI 0 => rbss
	jumpI  => f-main
f-f-0: i2i sp => fp
	addI sp,16 => sp
	loadI 99 => r0
	storeAI r0 => fp,8
	loadAI fp,12 => r1
	loadAI fp,0 => sp
	loadAI fp,4 => fp
	jump  => r1
f-main: addI sp,20 => sp
	storeAI sp => sp,0
	storeAI fp => sp,4
	storeAI 17 => sp,12
	jumpI  => f-f-0
	loadAI sp,8 => r0
	storeAI r0 => fp,0
	loadI 2 => r0
	storeAI r0 => fp,0
	loadAI fp,0 => r0
	storeAI r0 => fp,12
	halt 
