	loadI 0 => fp
	loadI 0 => sp
	loadI 0 => rbss
	jumpI  => f-main
f-mult-0: i2i sp => fp
	addI sp,28 => sp
	loadAI fp,16 => r1
	loadAI fp,20 => r2
	mul r1,r2 => r0
	storeAI r0 => fp,0
	loadAI fp,0 => r0
	storeAI r0 => fp,12
	loadAI fp,24 => r1
	loadAI fp,4 => sp
	loadAI fp,8 => fp
	jump  => r1
f-main: addI sp,24 => sp
	loadI 2 => r0
	storeAI r0 => fp,0
	loadAI fp,0 => r0
	storeAI r0 => sp,16
	loadAI fp,0 => r0
	storeAI r0 => sp,20
	storeAI sp => sp,4
	storeAI fp => sp,8
	storeAI 30 => sp,24
	jumpI  => f-mult-0
	loadAI sp,12 => r0
	storeAI r0 => fp,4
	halt 
