	loadI 0 => fp
	loadI 0 => sp
	loadI 0 => rbss
	jumpI => f-main
f-main: addI sp, 20 => sp
	loadI 2 => r0
	storeAI r0 => fp,0
w-2: nop
w-2-00: nop
	loadAI rbss,0 => r10
	cbr r10 -> w-2-t, w-2-f
w-2-t: nop
i-3: nop
i-3-00: nop
	loadAI fp,0 => r10
	cbr r10 -> i-3-t, i-3-f
i-3-t: nop
	loadI 0 => r0
	storeAI r0 => rbss,0
	jumpI -> i-3-e
i-3-f: nop
i-3-e: nop
	jumpI -> w-2
w-2-f: nop
	halt
