	loadI 0 => fp
	loadI 0 => sp
	loadI 0 => rbss
	jumpI => f-main
f-main: addI sp, 20 => sp
	loadI 0 => r0
	storeAI r0 => fp,0
d-2: nop
d-2-t: nop
i-3: nop
i-3-00: nop
	loadAI fp,0 => r10
	cbr r10 -> i-3-t, i-3-f
i-3-t: nop
	loadI 0 => r0
	storeAI r0 => rbss,0
	jumpI -> i-3-e
i-3-f: nop
	loadI 1 => r0
	storeAI r0 => rbss,0
i-3-e: nop
d-2-00: nop
	loadAI rbss,0 => r10
	cbr r10 -> d-2-t, d-2-f
d-2-f: nop
	halt
